%YAML 1.1
%TAG !u! tag:unity3d.com,2011:
--- !u!1045 &1
EditorBuildSettings:
  m_ObjectHideFlags: 0
  serializedVersion: 2
  m_Scenes:
  - enabled: 1
    path: Assets/_Screens/TitleScreen.unity
    guid: 12827a711a25aea4887e82fd9136da56
  - enabled: 1
    path: Assets/_Screens/GameScreen.unity
    guid: 25bf4323768ac6045b1489c084fe2364
